
curl http://ubuntu1204-laptop:8080/jsonweather-14690819827334664016.0-SNAPSHOT/rest/mypath/stuff

curl http://ubuntu1204-laptop:8080/jsonweather-14690819827334664016.0-SNAPSHOT/rest/mypath/stuff
<html lang="en"><body><h1>Hello There, Rest World!! 98.3 </body></h1></html>

curl http://ubuntu1204-laptop:8080/jsonweather-14690819827334664016.0-SNAPSHOT/rest/mypath/jsonstuff
{"value1":"test 1","value2":"test 1"}



